/**************************************************************************************** DEAL INFORMATIQUE **!
!&DOC-TECHNIQUE ! 273/appros/inc/coagiop0.i                                                                   !
!===============!=============================================================================================!
!&Fiche       Du   ! S.!   Operateur   !                      Motif de l'intervention                         !
!__________________!___!_______________!_____________________________________________________________________-!
!V52 17744 11-09-09!New!cch            !Gestion interface trésorerie AGIL                                     !
!_____________________________________________________________________________________________________________!
!                                                        M A I N                                              !
!_____________________________________________________________________________________________________________!
&End
**************************************************************************************************************/
/*==========================================================================*/
/*                           C O A G I O P 0 . I                            */
/* Correspondance Codes Mouvements AGIL / Codes Operations DEAL             */
/*--------------------------------------------------------------------------*/
/* Variables et Frames                                                      */
/*==========================================================================*/

def {1} shared var libelle as char extent 40 no-undo .

def {1} shared buffer B-TABLES for TABLES .

