/*==========================================================================*/
/*                            E - Q U A L 1 1 . I                           */
/*                     Edition des Receptions Fournisseurs                  */
/*==========================================================================*/

run e-qual1l.p( rupture-etat , rupture-a ) .