/*==========================================================================*/
/*                           E X - D A T E . I                              */
/* Integration PRODEPOT                                                     */
/*--------------------------------------------------------------------------*/
/* Include de conversion de date                              CC 10/06/1999 */
/*==========================================================================*/

/******************************
 {1} = date format AAMMJJ
 {2} = date format Progress
*******************************/
if substr({1}, 1, 2) = "??" then substr({1}, 1, 2) = "00".
libel = substr({1}, 5, 2) + substr({1}, 3, 2) + substr({1}, 1, 2).
{2} = date(libel) no-error.