if x-message <> ""
then do :
    /* Mouvements financiers */
    if fichi = "MVTFINAN" then overlay ( x-message , 47 , 3 ) = cdmou .
    x-message = "/* " + x-message .
    if x-message <> "/* ?" then put stream kan-rej unformatted x-message skip .
    if y-message <> ""     then put stream kan-rej unformatted y-message skip .
end .
assign x-message = "" y-message = "" .