/**************************************************************************************** DEAL INFORMATIQUE **!
!&DOC-TECHNIQUE ! 273/nathalie/273/gesstk-3.i                                                                 !
!===============!=============================================================================================!
!&Fiche       Du   ! S.!   Operateur   !                      Motif de l'intervention                         !
!__________________!___!_______________!_____________________________________________________________________-!
! 222640 2018-10-08!Evo!Willy Petit-Mai![GC][273] Reprise des spécifiques                                     !
!V61 38771 10-06-13!Bug!cch            !Correction test sur auxapr.type-tiers                                 !
!V61 27298 15-11-11!Evo!cch            !Ajout Extraction des Tiers vers STOCK-IT                              !
!_____________________________________________________________________________________________________________!
!                                                        M A I N                                              !
!_____________________________________________________________________________________________________________!
&End
**************************************************************************************************************/
/******************************************************************************/
/* GESDSTK-3.I - GESTION DES ECHANGES DE DONNEES NATHALIE / STOCK_IT          */
/*----------------------------------------------------------------------------*/
/* Extraction des Tiers                              14/11/2011 - EUREA - 273 */
/******************************************************************************/
/* Table commune pour envoi Tiers a STOCK_IT                                  */
/*============================================================================*/

def {1} shared temp-table TIE-STK_IT no-undo
               field codsoc     as char
               field type-tiers as char
               field rowtie     as rowid .





