/**************************************************************************************** DEAL INFORMATIQUE **!
!&DOC-TECHNIQUE ! Deal/nathalie/cmm/ndef-facbap.i                                                             !
!===============!=============================================================================================!
!&Fiche       Du   ! S.!   Operateur   !                      Motif de l'intervention                         !
!__________________!___!_______________!_____________________________________________________________________-!
! 222640 2018-10-08!Evo!Willy Petit-Mai![GC][273] Reprise des spécifiques                                     !
!V61 13084 16-01-09!New!jcc            !Pose du BAP dans MVTCPT                                               !
!_____________________________________________________________________________________________________________!
!                                                        M A I N                                              !
!_____________________________________________________________________________________________________________!
&End
**************************************************************************************************************/
/*  ==============================================================  */
/*                  N D E F - F A C B A P . I                       */
/*  ==============================================================  */
