/*==========================================================================*/
/*                            R - F V T E 1 1 . I                           */
/*  REEDITION de FACTURE A PARTIR de BASTAT                                 */
/*                     Edition des bons                                     */
/*==========================================================================*/
run r-fvte1l.p( rupture-etat , rupture-a ) .