/**************************************************************************************** DEAL INFORMATIQUE **!
!&DOC-TECHNIQUE ! 273/appros/inc/scan-cf1.i                                                                   !
!===============!=============================================================================================!
!&Fiche       Du   ! S.!   Operateur   !                      Motif de l'intervention                         !
!__________________!___!_______________!_____________________________________________________________________-!
!V52 17443 12-02-09!Evo!cch            !Ajout cas des FBE / FBS pour affichage liens bons S.D. / E.D.         !
!_____________________________________________________________________________________________________________!
!                                                        M A I N                                              !
!_____________________________________________________________________________________________________________!
&End
**************************************************************************************************************/
/*==========================================================================*/
/*                           S C A N - C F 1 . I                            */
/* Visu. lignes Commandes fabrications liees a une Fabrication              */
/*--------------------------------------------------------------------------*/
/* Acces Table                                                              */
/*==========================================================================*/

lect = "{1}" .

if lect = "" then FIND ligspe where recid( ligspe ) = rech-clef no-lock no-error .

             else FIND {1} LIGSPE where ligspe.codsoc = code-soc
                                  and   ligspe.motcle = mot-cle
                                  and   ligspe.typcom = type-com
                                  and   ligspe.numbon = no-bon
                                  and   ligspe.chrono = chr-lig
                                  use-index ligspe-1 no-lock no-error .

