/**************************************************************************************** DEAL INFORMATIQUE **!
!&DOC-TECHNIQUE ! 273/appros/inc/scan-cf2.i                                                                   !
!===============!=============================================================================================!
!&Fiche       Du   ! S.!   Operateur   !                      Motif de l'intervention                         !
!__________________!___!_______________!_____________________________________________________________________-!
!V52 17443 12-02-09!Evo!cch            !Ajout cas des FBE / FBS pour affichage liens bons S.D. / E.D.         !
!_____________________________________________________________________________________________________________!
!                                                        M A I N                                              !
!_____________________________________________________________________________________________________________!
&End
**************************************************************************************************************/
/*==========================================================================*/
/*                           S C A N - C F 1 . I                            */
/* Visu. lignes Commandes fabrications liees a une Fabrication              */
/*--------------------------------------------------------------------------*/
/* Affichage                                                                */
/*==========================================================================*/

rec-clef = recid( ligspe ) .

display rec-clef ligspe.alpha-3 ligspe.alpha-4 ligspe.int-1 with fram fr-rech .