/*==========================================================================*/
/*                   ***   S P C - E C S 0 . I   ***                        */
/*                   Appele par cde-lic.p & sai-lic.p                       */
/*==========================================================================*/
 
/*  Module Vide pour CBA  */