/*==========================================================================*/
/*                           V - C A R F I 2 . I                            */
/* Recherche Carte Fidelite Client                                          */
/*--------------------------------------------------------------------------*/
/* Affichage                                                                */
/*==========================================================================*/

rec-clef = auxdet.codtab .

display rec-clef lib-aff auxdet.calf09 lib-mag with fram fr-rech .
