/*==========================================================================*/
/*                            V T C - 0 0 1 . I                             */
/* Module de Recherche des Ref. Fournisseurs Plateformes                    */
/*--------------------------------------------------------------------------*/
/* Acces Table                                                              */
/*==========================================================================*/

lect = "{1}" .

if lect = ""
   then FIND T-FOURN where t-fourn.code = rech-clef no-lock no-error .
   else FIND {1} T-FOURN no-lock no-error .
