/*==========================================================================*/
/*                            V T C - 0 0 2 . I                             */
/* Module de Recherche des Ref. Fournisseurs Plateformes                    */
/*--------------------------------------------------------------------------*/
/* Affichage                                                                */
/*==========================================================================*/

rec-clef = t-fourn.code .

display rec-clef t-fourn.nom with frame fr-rech .