/**************************************************************************************** DEAL INFORMATIQUE **!
!&DOC-TECHNIQUE ! deal/appros/inc/x-bonens.i                                                                  !
!===============!=============================================================================================!
!&Fiche       Du   ! S.!   Operateur   !                      Motif de l'intervention                         !
!__________________!___!_______________!_____________________________________________________________________-!
!V52 17576 14-04-09!Evo!jcc            !Shunt Bonens                                                          !
!                                                        M A I N                                              !
!_____________________________________________________________________________________________________________!
!                                                        M A I N                                              !
!_____________________________________________________________________________________________________________!
&End
**************************************************************************************************************/
/*==========================================================================*/
/*                               X - B O N E N S . I                        */
/*==========================================================================*/

/*  Vide pour utilisation de BONENS   */
