/* ------------------------------------------------------------------------- */
/* duplication des creations / modifications articles / tarifs / gencods     */
/* ------------------------------------------------------------------------- */
/* dup-achc.i : creation                                                     */
/* ------------------------------------------------------------------------- */

create b-{1}.
buffer-copy {1}
  except {1}.codsoc
         {1}.datmaj
         {1}.heumaj
         {1}.opemaj
         {1}.datcre
         {1}.heucre
         {1}.opecre
to b-{1}
  assign b-{1}.codsoc = x-soc
         b-{1}.datcre = wdatmaj
         b-{1}.heucre = wheumaj
         b-{1}.opecre = wopemaj
         b-{1}.datmaj = wdatmaj
         b-{1}.heumaj = wheumaj
         b-{1}.opemaj = wopemaj.
