/*-------------------------------------------------- */
/*  Acces parametre lecture societe article ==> OK   */
/*-------------------------------------------------- */

  for each artapr use-index artapr-4
  where  artapr.codsoc = articl-soc
  AND   ( sfamille[1]  = " " OR
          (sfamille[1]  = artapr.famart
           and (ssousfam[1] = "" or (ssousfam[1] = artapr.soufam and
           (sssousfa[1] = "" or artapr.sssfam = sssousfa[1] )))) or
          (sfamille[2]  = artapr.famart
           and (ssousfam[2] = "" or (ssousfam[2] = artapr.soufam and
           (sssousfa[2] = "" or artapr.sssfam = sssousfa[2] )))) or
          (sfamille[3]  = artapr.famart
           and (ssousfam[3] = "" or (ssousfam[3] = artapr.soufam and
           (sssousfa[3] = "" or artapr.sssfam = sssousfa[3] )))) or
          (sfamille[4]  = artapr.famart
           and (ssousfam[4] = "" or (ssousfam[4] = artapr.soufam and
           (sssousfa[4] = "" or artapr.sssfam = sssousfa[4] )))) or
          (sfamille[5]  = artapr.famart
           and (ssousfam[5] = "" or (ssousfam[5] = artapr.soufam and
           (sssousfa[5] = "" or artapr.sssfam = sssousfa[5] )))) or
          (sfamille[6]  = artapr.famart
           and (ssousfam[6] = "" or (ssousfam[6] = artapr.soufam and
           (sssousfa[6] = "" or artapr.sssfam = sssousfa[6] )))) or
          (sfamille[7]  = artapr.famart
           and (ssousfam[7] = "" or (ssousfam[7] = artapr.soufam and
           (sssousfa[7] = "" or artapr.sssfam = sssousfa[7] )))) or
          (sfamille[8]  = artapr.famart
           and (ssousfam[8] = "" or (ssousfam[8] = artapr.soufam and
           (sssousfa[8] = "" or artapr.sssfam = sssousfa[8] ))))
                )
        no-lock :

/*
          if (sfamille[2]  <> "" and artapr.famart = sfamille[2]
             and ssousfam[2] <> " " and artapr.soufam = ssousfam[2]
             and sssousfa[2] <> " " and artapr.sssfam <> sssousfa[2] )
             then next.
*/



