/*-------------------------------------------------- */
/*  Acces parametre lecture societe article ==> OK   */
/*-------------------------------------------------- */

  for each artapr use-index artapr-1
  where  artapr.codsoc = articl-soc
  AND   (  sarticle[1]  = " "
           OR sarticle[1]  = artapr.articl OR sarticle[2]  = artapr.articl
           OR sarticle[3]  = artapr.articl OR sarticle[4]  = artapr.articl
           OR sarticle[5]  = artapr.articl OR sarticle[6]  = artapr.articl
           OR sarticle[7]  = artapr.articl OR sarticle[8]  = artapr.articl
           OR sarticle[9]  = artapr.articl OR sarticle[10] = artapr.articl
           OR sarticle[11] = artapr.articl OR sarticle[12] = artapr.articl
           OR sarticle[13] = artapr.articl OR sarticle[14] = artapr.articl
           OR sarticle[15] = artapr.articl OR sarticle[16] = artapr.articl
           OR sarticle[17] = artapr.articl OR sarticle[18] = artapr.articl
           OR sarticle[19] = artapr.articl OR sarticle[20] = artapr.articl
           OR sarticle[21] = artapr.articl OR sarticle[22] = artapr.articl
           OR sarticle[23] = artapr.articl OR sarticle[24] = artapr.articl
           OR sarticle[25] = artapr.articl )
        no-lock :
