/*---------------------------------------------------------------------------*/
/*                          S C A E - E D 2 . I                              */
/*---------------------------------------------------------------------------*/

display  " " @ lig-chrono
         " " @ lig-affich
         with frame FR-SCROLX .

lig-affich  = "" .
