/* 169-FIC 21 Brancher les engagements dans la balance analytique <EVO isa 23/07/01> */
/* V423ELO-FIC 325 Brancher les engagements ( SOLBUD/ENG) dans la balance Analytique <EVO isa 23/07/01> */
/* V423ELO-FIC 71 Chargement dans une variable du scenario pour traitement SPECIF <EVO isa 22/03/01> */
/* V422ELO-FIC 639 Balance analytique - NOUVELLE OPTION : edition derniere rupture en COL <EVO isa 18/12/00> */
 /* Maj des mt-spe dans le temp-table */ 
/* cas du 504  {x504ban3.i}  */ 
/* cas du 196  {x196ban3.i} */
/* cas du 169 */ {x169ban3.i} 
