/* V423ELO-FIC 40 Extraction banque de france : creation des dieses dans le rang detail <EVO AIR 06/03/01> */
 /* ebdfx102.i : include specif pour rechercher le code statistique dans le fiche tiers */

/* CAS CLIENT 169 : */ {x169x102.i} 
