/* V422ELO-FIC 501 Edition releves : edition du RG08 specif avec RG03 (evo du rela-c00.p) <EVO AIR 27/10/00> */
/* V42ELO-FIC 64 Contitution des releves. (appel d'un programme specifique ). <EVO lbo 06/05/99> */
/*- relrx120.i : Edition de # specifiques client sur rang 01 ou rang 02 -*/
/* # utilises ==> 97 et 98 */

/* {xgrox120.i}       /* Grosse  : Edition de 2 # sur rang 01 */ */
 {x169x120.i}       /* BRITTANY : Edition d'1 # sur rang 01 et rang 08 */ 

