/* V423ELO-FIC 16 Edition des releves : include specif pour montant spe dans RG05 <EVO AIR 21/02/01> */
/* relrx127.i : include specif pour editer des dieses specifs (110 a 119) */
/*              appele par relr-127.i                                     */

Procedure relrx127 :

/* cas client 169 :*/  {x169x127.i }


end procedure.
