/* V422ELO-FIC 242 ajout d'un spe pour la saisie du code TVA  ( client 427-476 ) <EVO yo 17/07/00> */
/* V42ELO-FIC 457 Ajout include specifique client pour Entrepose <EVO lau 03/11/99> */
/* ELO4-FIC 751 TVA intra simplifiee est devenu un module STANDARD <EVO isa 03/02/99> */
/* Ecriture CEE appel de saiscex.i */ 
/* REP-CLIENT   */ 
/* Specif campenon  {xcb-cee.i} */ 
/* specif entrepose {xent-cee.i}  */
/* Specif Villette  {x476-cee.i}  */
/* Specif brittany */ {x169-cee.i}  .


