/* test si appartenance cee */
 
{cadr-aux.i "regs-soc" "typaux" "auxili" }

find tabdom where tabdom.codsoc = regs-soc   and
                 tabdom.etabli = "AUX"       and
                 tabdom.typtab = "169"       and
                 tabdom.prefix = typaux      and
                 tabdom.codtab = auxili	   		
no-lock no-error.

    If not available tabdom or
tabdom.libel1[5] <> "o"
    then return .

	
	
      
 
