/* 169-FIC 21 Brancher les engagements dans la balance analytique <EVO isa 23/07/01> */
   assign 
   ban-export[11] = STRING (   anapre.mt-spe[19]  /  elo-divis , masq-aff )
   ban-export[12] = STRING (   anapre.mt-spe[20]  /  elo-divis , masq-aff )
   ban-export[13] = STRING (   anapre.mt-spe[19] + anapre.mt-spe[20]  /  elo-divis , masq-aff )

                                                                               
                                                                                   .
 
