/* 169-FIC 21 Brancher les engagements dans la balance analytique <EVO isa 23/07/01> */
 if ban-eng <> "" and lookup( "banaeng" ,this-procedure:internal-entries) <> 0  then run banaeng. 
                  else if ban-eng = "" 
                  then do : 
                      {banxsma4.i} /* budget dans solbud */ 
                  end.
 
