/* 169-FIC 21 Brancher les engagements dans la balance analytique <EVO isa 23/07/01> */
assign anapre.mt-spe [19] = anapre.mt-spe [19] + ban-mtspe[19] 
       anapre.mt-spe [20] = anapre.mt-spe [20] + ban-mtspe[20]                                                             

                                                                       
      . 
