/**************************************************************************************** DEAL INFORMATIQUE **!
!&DOC-TECHNIQUE ! deal/elopro/inc/ban-batx.i                                                                  !
!===============!=============================================================================================!
!&Fiche       Du   ! S.!   Operateur   !                      Motif de l'intervention                         !
!------------------!---!---------------!----------------------------------------------------------------------!
!V52  5428 19-06-03!Evo!air            !tableaux de bords EUROGEM                                             !
!V52  5428 19-06-03!Evo!air            !tableaux de bords EUROGEM                                             !
!V52  5426 19-06-03!Evo!air            !tableaux de bords EUROGEM                                             !
!V52  5426 19-06-03!Evo!air            !tableaux de bords EUROGEM                                             !
!V52  5425 19-06-03!Evo!air            !tableaux de bords EUROGEM                                             !
!V52  5425 19-06-03!Evo!air            !tableaux de bords EUROGEM                                             !
!V52  5424 19-06-03!Evo!air            !tableaux de bords EUROGEM                                             !
!V52  5424 19-06-03!Evo!air            !tableaux de bords EUROGEM                                             !
!V52  5422 19-06-03!Evo!air            !tableaux de bords EUROGEM                                             !
!-------------------------------------------------------------------------------------------------------------!
!                             I N C L U D E S                !                    T A B L E S                 !
!------------------------------------------------------------+------------------------------------------------!
!x599banx.i            !                                     !                                                !
!-------------------------------------------------------------------------------------------------------------!
!                                                        M A I N                                              !
!-------------------------------------------------------------------------------------------------------------!
&End
**************************************************************************************************************/
/* cas 599 */ {x599banx.i}  /*&FIN*/ /*&FIN*/ /*&FIN*/ /*&FIN*/ /*&FIN*/ /*&FIN*/ /*&FIN*/ /*&FIN*/