/**************************************************************************************** DEAL INFORMATIQUE **!
!&DOC-TECHNIQUE ! deal/elopro/inc/banax002.i                                                                  !
!===============!=============================================================================================!
!&Fiche       Du   ! S.!   Operateur   !                      Motif de l'intervention                         !
!------------------!---!---------------!----------------------------------------------------------------------!
!V52  5428 19-06-03!Evo!air            !tableaux de bords EUROGEM                                             !
!V52  5428 19-06-03!Evo!air            !tableaux de bords EUROGEM                                             !
!V52  5426 19-06-03!Evo!air            !tableaux de bords EUROGEM                                             !
!V52  5426 19-06-03!Evo!air            !tableaux de bords EUROGEM                                             !
!V52  5425 19-06-03!Evo!air            !tableaux de bords EUROGEM                                             !
!V52  5425 19-06-03!Evo!air            !tableaux de bords EUROGEM                                             !
!V52  5424 19-06-03!Evo!air            !tableaux de bords EUROGEM                                             !
!V52  5424 19-06-03!Evo!air            !tableaux de bords EUROGEM                                             !
!V52  5422 19-06-03!Evo!air            !tableaux de bords EUROGEM                                             !
!-------------------------------------------------------------------------------------------------------------!
!                             I N C L U D E S                !                    T A B L E S                 !
!------------------------------------------------------------+------------------------------------------------!
!x599ban3.i            !                                     !                                                !
!-------------------------------------------------------------------------------------------------------------!
!                                                        M A I N                                              !
!-------------------------------------------------------------------------------------------------------------!
&End
**************************************************************************************************************/
/* V423ELO-FIC 325 Brancher les engagements ( SOLBUD/ENG) dans la balance Analytique <EVO isa 23/07/01> */
/* V423ELO-FIC 71 Chargement dans une variable du scenario pour traitement SPECIF <EVO isa 22/03/01> */
/* V422ELO-FIC 639 Balance analytique - NOUVELLE OPTION : edition derniere rupture en COL <EVO isa 18/12/00> */
 /* Maj des mt-spe dans le temp-table */ 
/* cas du 504  {x504ban3.i}  */ 
/* cas du 196  {x196ban3.i} */
/* cas du 169  {x169ban3.i} */
/* cas du 599 */ {x599ban3.i}  /*&FIN*/ /*&FIN*/ /*&FIN*/ /*&FIN*/ /*&FIN*/ /*&FIN*/ /*&FIN*/ /*&FIN*/