/**************************************************************************************** DEAL INFORMATIQUE **!
!&DOC-TECHNIQUE ! 599/elopro/inc/banxdan2.i                                                                   !
!===============!=============================================================================================!
!&Fiche       Du   ! S.!   Operateur   !                      Motif de l'intervention                         !
!------------------!---!---------------!----------------------------------------------------------------------!
!V52  5430 19-06-03!Evo!air            !tableaux de bords EUROGEM                                             !
!V52  5430 19-06-03!Evo!air            !tableaux de bords EUROGEM                                             !
!-------------------------------------------------------------------------------------------------------------!
!                                                        M A I N                                              !
!-------------------------------------------------------------------------------------------------------------!
&End
**************************************************************************************************************/
  create detail . 
  assign detail.tri-1 = anapreex.c-seg 
         detail.tri-2 = mvtcpt.spe-lib-4  + "," + 
                        mvtcpt.percpt     + "," + 
                        mvtcpt.journal    + "," +
                        mvtcpt.docume 
         detail.enr   = rowid( mvtcpt ) .   /*&FIN*/