/**************************************************************************************** DEAL INFORMATIQUE **!
!&DOC-TECHNIQUE ! deal/elopro/inc/ed-basen.i                                                                  !
!===============!=============================================================================================!
!&Fiche       Du   ! S.!   Operateur   !                      Motif de l'intervention                         !
!------------------!---!---------------!----------------------------------------------------------------------!
!V52  5428 19-06-03!Evo!air            !tableaux de bords EUROGEM                                             !
!V52  5428 19-06-03!Evo!air            !tableaux de bords EUROGEM                                             !
!V52  5426 19-06-03!Evo!air            !tableaux de bords EUROGEM                                             !
!V52  5426 19-06-03!Evo!air            !tableaux de bords EUROGEM                                             !
!V52  5425 19-06-03!Evo!air            !tableaux de bords EUROGEM                                             !
!V52  5425 19-06-03!Evo!air            !tableaux de bords EUROGEM                                             !
!V52  5424 19-06-03!Evo!air            !tableaux de bords EUROGEM                                             !
!V52  5424 19-06-03!Evo!air            !tableaux de bords EUROGEM                                             !
!V52  5422 19-06-03!Evo!air            !tableaux de bords EUROGEM                                             !
!-------------------------------------------------------------------------------------------------------------!
!                             I N C L U D E S                !                    T A B L E S                 !
!------------------------------------------------------------+------------------------------------------------!
!x599base.i            !                                     !                                                !
!-------------------------------------------------------------------------------------------------------------!
!                                                        M A I N                                              !
!-------------------------------------------------------------------------------------------------------------!
&End
**************************************************************************************************************/
/* V423ELO-FIC 452 Edition des balances analytiques : Ajouter donnees specifs <EVO/BUG isa 02/10/01> */
/* Specif Irsid  entete {x196base.i} */ 
/* Specif client 599 entete */ {x599base.i}   /*&FIN*/ /*&FIN*/ /*&FIN*/ /*&FIN*/ /*&FIN*/ /*&FIN*/ /*&FIN*/ /*&FIN*/