/**************************************************************************************** DEAL INFORMATIQUE **!
!&DOC-TECHNIQUE ! 599/elopro/inc/jfacxa0c.i                                                                   !
!===============!=============================================================================================!
!&Fiche       Du   ! S.!   Operateur   !                      Motif de l'intervention                         !
!------------------!---!---------------!----------------------------------------------------------------------!
!V52  4683 01-04-03!New!104            !EXPORT -                                                              !
!                  !   !               !1-ZONES CHARGES A PASSER AU MENU                                      !
!-------------------------------------------------------------------------------------------------------------!
!                             I N C L U D E S                !                    T A B L E S                 !
!------------------------------------------------------------+------------------------------------------------!
!x599-a0c.i            !"doccpt" " " "mvtcpt"                !                                                !
!-------------------------------------------------------------------------------------------------------------!
!                                                        M A I N                                              !
!-------------------------------------------------------------------------------------------------------------!
&End
**************************************************************************************************************/
/* ELO4-FIC 680 Extraction des mouvements compta par ASCII avec MAJ <NEW isa 14/01/99> */
/* REP-CLIENT */
/* tester la maj du mouvements date-trans[1]*/  {x599-a0c.i "doccpt" " " "mvtcpt" }  


