/**************************************************************************************** DEAL INFORMATIQUE **!
!&DOC-TECHNIQUE ! 599/elopro/inc/jfacxa0e.i                                                                   !
!===============!=============================================================================================!
!&Fiche       Du   ! S.!   Operateur   !                      Motif de l'intervention                         !
!------------------!---!---------------!----------------------------------------------------------------------!
!V52  4683 01-04-03!New!104            !EXPORT -                                                              !
!                  !   !               !1-ZONES CHARGES A PASSER AU MENU                                      !
!-------------------------------------------------------------------------------------------------------------!
!                             I N C L U D E S                !                    T A B L E S                 !
!------------------------------------------------------------+------------------------------------------------!
!x599-a0e.i            !"doccpt" " " "mvtcpt"                !                                                !
!-------------------------------------------------------------------------------------------------------------!
!                                                        M A I N                                              !
!-------------------------------------------------------------------------------------------------------------!
&End
**************************************************************************************************************/
 {x599-a0e.i "doccpt" " " "mvtcpt" }   