/**************************************************************************************** DEAL INFORMATIQUE **!
!&DOC-TECHNIQUE ! 599/elopro/inc/x599ban1.i                                                                   !
!===============!=============================================================================================!
!&Fiche       Du   ! S.!   Operateur   !                      Motif de l'intervention                         !
!------------------!---!---------------!----------------------------------------------------------------------!
!V52  5428 19-06-03!Evo!air            !tableaux de bords EUROGEM                                             !
!V52  5426 19-06-03!Evo!air            !tableaux de bords EUROGEM                                             !
!V52  5425 19-06-03!Evo!air            !tableaux de bords EUROGEM                                             !
!V52  5424 19-06-03!Evo!air            !tableaux de bords EUROGEM                                             !
!V52  5422 19-06-03!Evo!air            !tableaux de bords EUROGEM                                             !
!-------------------------------------------------------------------------------------------------------------!
!                                                        M A I N                                              !
!-------------------------------------------------------------------------------------------------------------!
&End
**************************************************************************************************************/
case ban-refaxe:

  when "ZZZ"
  then do:

       assign ban-export[11] =  string( anapre.mt-spe[2] * -1 / elo-divis )
              ban-export[12] =  string( anapre.mt-spe[3] * -1 / elo-divis )
              ban-export[14] =  string( anapre.mt-spe[1] * -1 / elo-divis )
              .

  end.

end case.

