/**************************************************************************************** DEAL INFORMATIQUE **!
!&DOC-TECHNIQUE ! 599/elopro/inc/x599ban3.i                                                                   !
!===============!=============================================================================================!
!&Fiche       Du   ! S.!   Operateur   !                      Motif de l'intervention                         !
!------------------!---!---------------!----------------------------------------------------------------------!
!V52  5428 19-06-03!Evo!air            !tableaux de bords EUROGEM                                             !
!V52  5426 19-06-03!Evo!air            !tableaux de bords EUROGEM                                             !
!V52  5425 19-06-03!Evo!air            !tableaux de bords EUROGEM                                             !
!V52  5424 19-06-03!Evo!air            !tableaux de bords EUROGEM                                             !
!V52  5422 19-06-03!Evo!air            !tableaux de bords EUROGEM                                             !
!-------------------------------------------------------------------------------------------------------------!
!                                                        M A I N                                              !
!-------------------------------------------------------------------------------------------------------------!
&End
**************************************************************************************************************/
assign anapre.mt-spe[ 1] = anapre.mt-spe[ 1] + ban-mtspe[ 1] 
       anapre.mt-spe[ 2] = anapre.mt-spe[ 2] + ban-mtspe[ 2] 
       anapre.mt-spe[ 3] = anapre.mt-spe[ 3] + ban-mtspe[ 3]   
       anapre.mt-spe[ 4] = anapre.mt-spe[ 4] + ban-mtspe[ 4]   
       anapre.mt-spe[ 5] = anapre.mt-spe[ 5] + ban-mtspe[ 5]   
       . 

