/**************************************************************************************** DEAL INFORMATIQUE **!
!&DOC-TECHNIQUE ! 599/elopro/inc/x599-a0c.i                                                                   !
!===============!=============================================================================================!
!&Fiche       Du   ! S.!   Operateur   !                      Motif de l'intervention                         !
!------------------!---!---------------!----------------------------------------------------------------------!
!V52  4683 01-04-03!New!104            !EXPORT -                                                              !
!                  !   !               !1-ZONES CHARGES A PASSER AU MENU                                      !
!-------------------------------------------------------------------------------------------------------------!
!                                                        M A I N                                              !
!-------------------------------------------------------------------------------------------------------------!
&End
**************************************************************************************************************/
/*toutes les factures seront topees pour ne pas etre exportees ulterieurement*/
if var-type-client = "facture" or
   var-type-client = "cap"
then do :
    if  {3}.date-trans[1] <> ? then next . 
    if available m-mvtcpt then m-mvtcpt.date-trans[1] = today .      
end.




