/*----------------------------------------------------------------------------*/
/*                           PROJET ACTION VENTES                             */
/*                                                                            */
/*  include : actv-str.i : contient les definitions des streams utilises dans */
/* =========               les modules d'edition actv-ed*.p                   */
/*                                                                            */
/* DGR 29-01-03                                                               */
/*----------------------------------------------------------------------------*/

DEF STREAM edition01.
DEF STREAM edition02.
DEF STREAM edition03.
DEF STREAM edition04.
DEF STREAM edition05.

