/*==========================================================================*/
/*                           E X T - C R M J 0 . I                          */
/* Extraction des donnees pour Ventes Partner                               */
/*--------------------------------------------------------------------------*/
/* Variables et Frames                                                      */
/*==========================================================================*/

/* Variables */
def var ind       as int                 no-undo.
def var lib-trt   as char format "x(15)" no-undo.
def var lib-table as char format "x(76)" no-undo.

def {1} shared var libelle      as char extent 30           no-undo.
def {1} shared var type-trt     as char format "x"          no-undo.
def {1} shared var l-soc        as char format "x(32)"      no-undo.
def {1} shared var l-tables     as char format "x(45)"      no-undo.
def {1} shared var date-debut   as date format "99/99/9999" no-undo.

def {1} shared buffer date-tabges for tabges .

/* Dessin des Frames */
def {1} shared frame fr-saisie.
def {1} shared frame fr-trt.

Form libelle[01] format "x(18)" type-trt lib-trt  skip
     libelle[02] format "x(18)" l-soc             skip
     libelle[03] format "x(18)" l-tables          skip
     libelle[04] format "x(18)" date-debut
     with frame fr-saisie row 5 centered no-label overlay { v6frame.i }.

Form skip lib-table skip
     with frame fr-trt row 14 centered no-label overlay { v6frame.i }.