    /* Affectation enregistrement */
    zone = "APPMVT  "                                    + /* 0001 - 008 */
           fill( " ", 3 )                                + /* 0009 - 003 */
           string( code-mag, "xxx" )                     + /* 0012 - 003 */
           ags-no                                        + /* 0015 - 015 */
           string( ligbon, "999" )                       + /* 0030 - 003 */
           "AP"                                          + /* 0033 - 002 */
           "EFO"                                         +
           fill( " ", 2 )                                + /* 0038 - 002 */
           "0"                                           + /* 0040 - 008 */
           string(numbon, "9999999")                     +
           fill( "0", 8 )                                + /* 0048 - 008 */
           "805000   " .                                   /* 0056 - 009 */

    zone = zone + "N" .                                   /* 0065 - 001 */

    zone = zone                                           +
           " "                                            + /* 0066 - 001 */
           "D"                                            + /* 0067 - 001 */
           fill( "0", 7 )                                 + /* 0068 - 007 */
           "N"                                            +
           fill( " ", 5 )                                 + /* 0076 - 005 */
           "2009".

    zone = zone                                           +
           string( stoinv.articl, "x(8)" )                + /* 0085 - 008 */
           fill( " ", 4 )                                   /* 0093 - 004 */
           .

    zone = zone + substr( artapr.tva, 3, 1 ) .
    zone = zone                                           +
           "20090701"                                     +
           fill( " ", 19 )                                + /* 0106 - 019 */
           string( code-soc, "xx" )                       + /* 0125 - 002 */
           fill( " ", 2 )                                 + /* 0127 - 002 */
           string( code-soc, "xx" )                       + /* 0129 - 002 */
           string( artapr.libart1[1], "x(30)" )               + /* 0131 - 030 */
           fill( " ", 2 )                                 + /* 0161 - 002 */
           fill( "0", 9 ) +  " "                          + /* 0163 - 010 */
           fill( "0", 9 ) +  " "                          /* 0173 - 010 */
           .

/* tenu en stock */
    zone = zone + "0" .

    zone = zone                                           +
           fill( " ", 20 )                                  /* 0184 - 020 */
           .

    zone = zone + fill ( "0", 8 )                         +
           fill( " ", 15 )                                + /* 0212 - 015 */
           "0"                                            + /* 0227 - 001 */
           " "                                            + /* 0228 - 001 */
           fill( "0", 8 )                                 + /* 0229 - 009 */
           " ".

    qte-env = wqte.                                        /* 0238 - 009 */

    zone = zone + string( qte-env * 1000, "99999999-" ) .

    zone = zone                                           +
           fill( "0", 10 ) + " "                          +
           fill( "0", 121 )                               +
           "130051121000"                                 + /* 0379 - 144 */
           fill( "0", 132 )                               +
           fill( " ", 29 )                                + /* 0523 - 029 */
           fill( "0", 8 )                                 + /* 0552 - 009 */
           " "                                            +
           fill( " ", 5 )                                 + /* 0561 - 005 */
           "0000100 "                                     + /* 0566 - 008 */
           fill( " ", 9 )                                 + /* 0574 - 009 */
           fill( "0", 8 )                                 + /* 0583 - 009 */
           " "                                            +
           fill( "0", 11 )                                +
           fill( "0", 3 )                                +
           "N"                                            + /* 0606 - 001 */
           fill( " ", 3 )                                 + /* 0607 - 003 */
           fill( "0", 16 )                                + /* 0610 - 017 */
           " "                                            +
           "0"                                            + /* 0627 - 004 */
           string( code-mag, "xxx" )                      +
           fill( " ", 8 )                                 + /* 0631 - 008 */
           fill( " ", 10 )                                +
           "20090701"                                     + /* 0649 - 008 */
           fill( " ", 14 )                                + /* 0657 - 014 */
           fill( "0", 5 )                                 + /* 0671 - 006 */
           " "                                            +
           fill( " ", 5 )                                 + /* 0677 - 005 */
           fill( " ", 2 )                                 + /* 0682 - 002 */
           "TE"                                           + /* 0684 - 002 */
           fill( " ", 2 )                                 + /* 0686 - 002 */
           fill( "0", 3 ) /* Chgt en fin FOR EACH */      + /* 0688 - 003 */
           fill( "0", 18 )                                + /* 0691 - 018 */
           fill( " ", 15 )                                + /* 0709 - 015 */
           "N"                                            + /* 0724 - 001 */
           " "                                            + /* 0725 - 001 */
           fill( "0", 9  ) +  " "                         + /* 0 - 010 */
           fill( "0", 9  ) +  " "                         + /* 0736 - 010 */
           fill( "0", 9  ) +  " "                         + /* 0746 - 010 */
           fill( "0", 9  ) +  " "                         + /* 0756 - 010 */
           fill( "0", 9  ) +  " "                         + /* 0766 - 010 */
           fill( "0", 9  ) +  " "                         + /* 0776 - 010 */
           fill( "0", 9  ) +  " "                         + /* 0786 - 010 */
           fill( "0", 9  ) +  " "                         + /* 0796 - 010 */
           fill( "0", 9  ) +  " "                         + /* 0806 - 010 */
           fill( "0", 9  ) +  " "                         + /* 0816 - 010 */
           fill( "0", 9  ) +  " "                         + /* 0826 - 010 */
           fill( "0", 9  ) +  " "                         + /* 0836 - 010 */
           fill( "0", 9  ) +  " "                         + /* 0846 - 010 */
           fill( "0", 9  ) +  " "                         + /* 0856 - 010 */
           fill( "0", 9  ) +  " "                         + /* 0866 - 010 */
           fill( "0", 9  ) +  " "                         + /* 0876 - 010 */
           string( "BVL", "x(12)" )                       + /* 0886 - 012 */
           "E"                                            + /* 0898 - 001 */
           fill( " ", 8 )                                 + /* 0899 - 008 */
           fill( "0", 111 )                                 /* 0907 - 111 */
           .
    put stream sortie unformatted zone skip.

