/*---------------------------------------------------------------------------*/
/*                          sc-visold2.i                                     */
/*---------------------------------------------------------------------------*/

display  " " @ lig-chrono
         " " @ lig-affich
         with frame FR-SCROLX .

lig-affich  = "" .
