/* V423ELO-FIC 634 Saisie d'une nature ana en fonction d'un plan de nature assiocie au <NEW/EVO yo 21/01/02> */
/* ELO4-FIC 729 Avis aux programmeurs Module de controle analytique avant comptabilisa <NEW isa 29/01/99> */
/* REP-CLIENT */ 
/* Test pour GTMH        pour rejet analytique  {xtmhintf.i } */ 
 {intf-pla.i} 
