107七MM卜echerche fournisseur racine ou complet
254七MM下SINOR
20227九LO卜echerche et d憝eloppement
50004刁AT又ignature demande d'achat
50036刁AT七ompte de recherche et Poste
50144刁AT卜echerche et d憝eloppement
50174刁AT力rdre de r嶧pprovisionnement
