9七MM卜etour
16七MM丈euillez saisir toutes les zones
105七MM卜etour menu                                                                                                                                                                                                                                             

106七MM卜etour page                                                                                                                                                                                                                                             

151七MM卜enseigner tout
152七MM又upprimer tout
20195九LO卜etour aux visualisations
30005又OP三ous
40035丁AC卜etour En-t皻e
50069刁AT九tes-vous sur de vouloir valider tous les bons
50070刁AT丈alider tous les bons d嶨initifs
