/* V423ELO-FIC 1691 Preparation chaine de tresorerie. Ouverture specifique sur maj mvtcpt. <EVO LBO 30/07/04> */
/*- relay210.i : Ouverture pour traitement spécifique -*/
{x620r210.i} /* Specifique Sade */
