/**************************************************************************************** DEAL INFORMATIQUE **!
!&DOC-TECHNIQUE ! 620/elopro/inc/repaff-x.i                                                                   !
!===============!=============================================================================================!
!&Fiche       Du   ! S.!   Operateur   !                      Motif de l'intervention                         !
!__________________!___!_______________!_____________________________________________________________________-!
!V52 11320 16-11-04!New!air            !Gestion des affaires : copie axe Z01 dans le code CIF                 !
!_____________________________________________________________________________________________________________!
!                                                        M A I N                                              !
!_____________________________________________________________________________________________________________!
&End
**************************************************************************************************************/
/* repaff-x.i : traitements specifiques a l'integration des affaires sur la tables ELOAFX */
libel = "$" + string ( rowid ( eloafx ) ) .
run x620-repaff.p .